%YAML 1.1
%TAG !u! tag:unity3d.com,2011:
--- !u!29 &1
OcclusionCullingSettings:
  m_ObjectHideFlags: 0
  serializedVersion: 2
  m_OcclusionBakeSettings:
    smallestOccluder: 5
    smallestHole: 0.25
    backfaceThreshold: 100
  m_SceneGUID: 00000000000000000000000000000000
  m_OcclusionCullingData: {fileID: 0}
--- !u!104 &2
RenderSettings:
  m_ObjectHideFlags: 0
  serializedVersion: 7
  m_Fog: 0
  m_FogColor: {r: 0.5, g: 0.5, b: 0.5, a: 1}
  m_FogMode: 3
  m_FogDensity: 0.01
  m_LinearFogStart: 0
  m_LinearFogEnd: 300
  m_AmbientSkyColor: {r: 0.212, g: 0.227, b: 0.259, a: 1}
  m_AmbientEquatorColor: {r: 0.114, g: 0.125, b: 0.133, a: 1}
  m_AmbientGroundColor: {r: 0.047, g: 0.043, b: 0.035, a: 1}
  m_AmbientIntensity: 1
  m_AmbientMode: 3
  m_SkyboxMaterial: {fileID: 0}
  m_HaloStrength: 0.5
  m_FlareStrength: 1
  m_FlareFadeSpeed: 3
  m_HaloTexture: {fileID: 0}
  m_SpotCookie: {fileID: 10001, guid: 0000000000000000e000000000000000, type: 0}
  m_DefaultReflectionMode: 0
  m_DefaultReflectionResolution: 128
  m_ReflectionBounces: 1
  m_ReflectionIntensity: 1
  m_CustomReflection: {fileID: 0}
  m_Sun: {fileID: 0}
  m_IndirectSpecularColor: {r: 0, g: 0, b: 0, a: 1}
--- !u!157 &3
LightmapSettings:
  m_ObjectHideFlags: 0
  serializedVersion: 7
  m_GIWorkflowMode: 1
  m_GISettings:
    serializedVersion: 2
    m_BounceScale: 1
    m_IndirectOutputScale: 1
    m_AlbedoBoost: 1
    m_TemporalCoherenceThreshold: 1
    m_EnvironmentLightingMode: 0
    m_EnableBakedLightmaps: 0
    m_EnableRealtimeLightmaps: 0
  m_LightmapEditorSettings:
    serializedVersion: 4
    m_Resolution: 2
    m_BakeResolution: 40
    m_TextureWidth: 1024
    m_TextureHeight: 1024
    m_AO: 0
    m_AOMaxDistance: 1
    m_CompAOExponent: 1
    m_CompAOExponentDirect: 0
    m_Padding: 2
    m_LightmapParameters: {fileID: 0}
    m_LightmapsBakeMode: 1
    m_TextureCompression: 1
    m_DirectLightInLightProbes: 1
    m_FinalGather: 0
    m_FinalGatherFiltering: 1
    m_FinalGatherRayCount: 256
    m_ReflectionCompression: 2
  m_LightingDataAsset: {fileID: 0}
  m_RuntimeCPUUsage: 25
--- !u!196 &4
NavMeshSettings:
  serializedVersion: 2
  m_ObjectHideFlags: 0
  m_BuildSettings:
    serializedVersion: 2
    agentTypeID: 0
    agentRadius: 0.5
    agentHeight: 2
    agentSlope: 45
    agentClimb: 0.4
    ledgeDropHeight: 0
    maxJumpAcrossDistance: 0
    minRegionArea: 2
    manualCellSize: 0
    cellSize: 0.16666667
    accuratePlacement: 0
  m_NavMeshData: {fileID: 0}
--- !u!1001 &106401267
Prefab:
  m_ObjectHideFlags: 0
  serializedVersion: 2
  m_Modification:
    m_TransformParent: {fileID: 0}
    m_Modifications:
    - target: {fileID: 4943059401547202, guid: 7ffb6857cd5886f41b149a3a364b1e7c, type: 2}
      propertyPath: m_LocalPosition.x
      value: 0
      objectReference: {fileID: 0}
    - target: {fileID: 4943059401547202, guid: 7ffb6857cd5886f41b149a3a364b1e7c, type: 2}
      propertyPath: m_LocalPosition.y
      value: 0.5
      objectReference: {fileID: 0}
    - target: {fileID: 4943059401547202, guid: 7ffb6857cd5886f41b149a3a364b1e7c, type: 2}
      propertyPath: m_LocalPosition.z
      value: 0
      objectReference: {fileID: 0}
    - target: {fileID: 4943059401547202, guid: 7ffb6857cd5886f41b149a3a364b1e7c, type: 2}
      propertyPath: m_LocalRotation.x
      value: 0
      objectReference: {fileID: 0}
    - target: {fileID: 4943059401547202, guid: 7ffb6857cd5886f41b149a3a364b1e7c, type: 2}
      propertyPath: m_LocalRotation.y
      value: 0
      objectReference: {fileID: 0}
    - target: {fileID: 4943059401547202, guid: 7ffb6857cd5886f41b149a3a364b1e7c, type: 2}
      propertyPath: m_LocalRotation.z
      value: 0
      objectReference: {fileID: 0}
    - target: {fileID: 4943059401547202, guid: 7ffb6857cd5886f41b149a3a364b1e7c, type: 2}
      propertyPath: m_LocalRotation.w
      value: 1
      objectReference: {fileID: 0}
    - target: {fileID: 4943059401547202, guid: 7ffb6857cd5886f41b149a3a364b1e7c, type: 2}
      propertyPath: m_RootOrder
      value: 4
      objectReference: {fileID: 0}
    m_RemovedComponents: []
  m_ParentPrefab: {fileID: 100100000, guid: 7ffb6857cd5886f41b149a3a364b1e7c, type: 2}
  m_IsPrefabParent: 0
--- !u!1001 &311675297
Prefab:
  m_ObjectHideFlags: 0
  serializedVersion: 2
  m_Modification:
    m_TransformParent: {fileID: 0}
    m_Modifications:
    - target: {fileID: 4624326995064856, guid: 7f62113d0dec6874f925dcc26894736d, type: 2}
      propertyPath: m_LocalPosition.x
      value: 0
      objectReference: {fileID: 0}
    - target: {fileID: 4624326995064856, guid: 7f62113d0dec6874f925dcc26894736d, type: 2}
      propertyPath: m_LocalPosition.y
      value: 0
      objectReference: {fileID: 0}
    - target: {fileID: 4624326995064856, guid: 7f62113d0dec6874f925dcc26894736d, type: 2}
      propertyPath: m_LocalPosition.z
      value: -10
      objectReference: {fileID: 0}
    - target: {fileID: 4624326995064856, guid: 7f62113d0dec6874f925dcc26894736d, type: 2}
      propertyPath: m_LocalRotation.x
      value: 0
      objectReference: {fileID: 0}
    - target: {fileID: 4624326995064856, guid: 7f62113d0dec6874f925dcc26894736d, type: 2}
      propertyPath: m_LocalRotation.y
      value: 0
      objectReference: {fileID: 0}
    - target: {fileID: 4624326995064856, guid: 7f62113d0dec6874f925dcc26894736d, type: 2}
      propertyPath: m_LocalRotation.z
      value: 0
      objectReference: {fileID: 0}
    - target: {fileID: 4624326995064856, guid: 7f62113d0dec6874f925dcc26894736d, type: 2}
      propertyPath: m_LocalRotation.w
      value: 1
      objectReference: {fileID: 0}
    - target: {fileID: 4624326995064856, guid: 7f62113d0dec6874f925dcc26894736d, type: 2}
      propertyPath: m_RootOrder
      value: 2
      objectReference: {fileID: 0}
    m_RemovedComponents: []
  m_ParentPrefab: {fileID: 100100000, guid: 7f62113d0dec6874f925dcc26894736d, type: 2}
  m_IsPrefabParent: 0
--- !u!1001 &441121486
Prefab:
  m_ObjectHideFlags: 0
  serializedVersion: 2
  m_Modification:
    m_TransformParent: {fileID: 0}
    m_Modifications:
    - target: {fileID: 4000013826509212, guid: 172c0eb8aab832744b136c81c47c04f6, type: 2}
      propertyPath: m_LocalPosition.x
      value: 0
      objectReference: {fileID: 0}
    - target: {fileID: 4000013826509212, guid: 172c0eb8aab832744b136c81c47c04f6, type: 2}
      propertyPath: m_LocalPosition.y
      value: -7
      objectReference: {fileID: 0}
    - target: {fileID: 4000013826509212, guid: 172c0eb8aab832744b136c81c47c04f6, type: 2}
      propertyPath: m_LocalPosition.z
      value: 0
      objectReference: {fileID: 0}
    - target: {fileID: 4000013826509212, guid: 172c0eb8aab832744b136c81c47c04f6, type: 2}
      propertyPath: m_LocalRotation.x
      value: -0
      objectReference: {fileID: 0}
    - target: {fileID: 4000013826509212, guid: 172c0eb8aab832744b136c81c47c04f6, type: 2}
      propertyPath: m_LocalRotation.y
      value: -0
      objectReference: {fileID: 0}
    - target: {fileID: 4000013826509212, guid: 172c0eb8aab832744b136c81c47c04f6, type: 2}
      propertyPath: m_LocalRotation.z
      value: -0
      objectReference: {fileID: 0}
    - target: {fileID: 4000013826509212, guid: 172c0eb8aab832744b136c81c47c04f6, type: 2}
      propertyPath: m_LocalRotation.w
      value: 1
      objectReference: {fileID: 0}
    - target: {fileID: 4000013826509212, guid: 172c0eb8aab832744b136c81c47c04f6, type: 2}
      propertyPath: m_RootOrder
      value: 3
      objectReference: {fileID: 0}
    m_RemovedComponents: []
  m_ParentPrefab: {fileID: 100100000, guid: 172c0eb8aab832744b136c81c47c04f6, type: 2}
  m_IsPrefabParent: 0
--- !u!1001 &539322698
Prefab:
  m_ObjectHideFlags: 0
  serializedVersion: 2
  m_Modification:
    m_TransformParent: {fileID: 0}
    m_Modifications:
    - target: {fileID: 4080602514752038, guid: b966056c72c0d064db879f9496d1d9ac, type: 2}
      propertyPath: m_LocalPosition.x
      value: -10
      objectReference: {fileID: 0}
    - target: {fileID: 4080602514752038, guid: b966056c72c0d064db879f9496d1d9ac, type: 2}
      propertyPath: m_LocalPosition.y
      value: 3
      objectReference: {fileID: 0}
    - target: {fileID: 4080602514752038, guid: b966056c72c0d064db879f9496d1d9ac, type: 2}
      propertyPath: m_LocalPosition.z
      value: 0
      objectReference: {fileID: 0}
    - target: {fileID: 4080602514752038, guid: b966056c72c0d064db879f9496d1d9ac, type: 2}
      propertyPath: m_LocalRotation.x
      value: -0
      objectReference: {fileID: 0}
    - target: {fileID: 4080602514752038, guid: b966056c72c0d064db879f9496d1d9ac, type: 2}
      propertyPath: m_LocalRotation.y
      value: -0
      objectReference: {fileID: 0}
    - target: {fileID: 4080602514752038, guid: b966056c72c0d064db879f9496d1d9ac, type: 2}
      propertyPath: m_LocalRotation.z
      value: -0
      objectReference: {fileID: 0}
    - target: {fileID: 4080602514752038, guid: b966056c72c0d064db879f9496d1d9ac, type: 2}
      propertyPath: m_LocalRotation.w
      value: 1
      objectReference: {fileID: 0}
    - target: {fileID: 4080602514752038, guid: b966056c72c0d064db879f9496d1d9ac, type: 2}
      propertyPath: m_RootOrder
      value: 9
      objectReference: {fileID: 0}
    - target: {fileID: 4080602514752038, guid: b966056c72c0d064db879f9496d1d9ac, type: 2}
      propertyPath: m_LocalScale.x
      value: 11
      objectReference: {fileID: 0}
    - target: {fileID: 1838934343268950, guid: b966056c72c0d064db879f9496d1d9ac, type: 2}
      propertyPath: m_Name
      value: Platform (3)
      objectReference: {fileID: 0}
    m_RemovedComponents: []
  m_ParentPrefab: {fileID: 100100000, guid: b966056c72c0d064db879f9496d1d9ac, type: 2}
  m_IsPrefabParent: 0
--- !u!1001 &680654357
Prefab:
  m_ObjectHideFlags: 0
  serializedVersion: 2
  m_Modification:
    m_TransformParent: {fileID: 0}
    m_Modifications:
    - target: {fileID: 4563383255719134, guid: 26644fc3f9b6f0f4a9b791c5db6b6557, type: 2}
      propertyPath: m_LocalPosition.x
      value: 0
      objectReference: {fileID: 0}
    - target: {fileID: 4563383255719134, guid: 26644fc3f9b6f0f4a9b791c5db6b6557, type: 2}
      propertyPath: m_LocalPosition.y
      value: 0
      objectReference: {fileID: 0}
    - target: {fileID: 4563383255719134, guid: 26644fc3f9b6f0f4a9b791c5db6b6557, type: 2}
      propertyPath: m_LocalPosition.z
      value: 0
      objectReference: {fileID: 0}
    - target: {fileID: 4563383255719134, guid: 26644fc3f9b6f0f4a9b791c5db6b6557, type: 2}
      propertyPath: m_LocalRotation.x
      value: 0
      objectReference: {fileID: 0}
    - target: {fileID: 4563383255719134, guid: 26644fc3f9b6f0f4a9b791c5db6b6557, type: 2}
      propertyPath: m_LocalRotation.y
      value: 0
      objectReference: {fileID: 0}
    - target: {fileID: 4563383255719134, guid: 26644fc3f9b6f0f4a9b791c5db6b6557, type: 2}
      propertyPath: m_LocalRotation.z
      value: 0
      objectReference: {fileID: 0}
    - target: {fileID: 4563383255719134, guid: 26644fc3f9b6f0f4a9b791c5db6b6557, type: 2}
      propertyPath: m_LocalRotation.w
      value: 1
      objectReference: {fileID: 0}
    - target: {fileID: 4563383255719134, guid: 26644fc3f9b6f0f4a9b791c5db6b6557, type: 2}
      propertyPath: m_RootOrder
      value: 0
      objectReference: {fileID: 0}
    m_RemovedComponents: []
  m_ParentPrefab: {fileID: 100100000, guid: 26644fc3f9b6f0f4a9b791c5db6b6557, type: 2}
  m_IsPrefabParent: 0
--- !u!1001 &716042621
Prefab:
  m_ObjectHideFlags: 0
  serializedVersion: 2
  m_Modification:
    m_TransformParent: {fileID: 0}
    m_Modifications:
    - target: {fileID: 4080602514752038, guid: b966056c72c0d064db879f9496d1d9ac, type: 2}
      propertyPath: m_LocalPosition.x
      value: 10
      objectReference: {fileID: 0}
    - target: {fileID: 4080602514752038, guid: b966056c72c0d064db879f9496d1d9ac, type: 2}
      propertyPath: m_LocalPosition.y
      value: -3
      objectReference: {fileID: 0}
    - target: {fileID: 4080602514752038, guid: b966056c72c0d064db879f9496d1d9ac, type: 2}
      propertyPath: m_LocalPosition.z
      value: 0
      objectReference: {fileID: 0}
    - target: {fileID: 4080602514752038, guid: b966056c72c0d064db879f9496d1d9ac, type: 2}
      propertyPath: m_LocalRotation.x
      value: -0
      objectReference: {fileID: 0}
    - target: {fileID: 4080602514752038, guid: b966056c72c0d064db879f9496d1d9ac, type: 2}
      propertyPath: m_LocalRotation.y
      value: -0
      objectReference: {fileID: 0}
    - target: {fileID: 4080602514752038, guid: b966056c72c0d064db879f9496d1d9ac, type: 2}
      propertyPath: m_LocalRotation.z
      value: -0
      objectReference: {fileID: 0}
    - target: {fileID: 4080602514752038, guid: b966056c72c0d064db879f9496d1d9ac, type: 2}
      propertyPath: m_LocalRotation.w
      value: 1
      objectReference: {fileID: 0}
    - target: {fileID: 4080602514752038, guid: b966056c72c0d064db879f9496d1d9ac, type: 2}
      propertyPath: m_RootOrder
      value: 1
      objectReference: {fileID: 0}
    - target: {fileID: 4080602514752038, guid: b966056c72c0d064db879f9496d1d9ac, type: 2}
      propertyPath: m_LocalScale.x
      value: 11
      objectReference: {fileID: 0}
    m_RemovedComponents: []
  m_ParentPrefab: {fileID: 100100000, guid: b966056c72c0d064db879f9496d1d9ac, type: 2}
  m_IsPrefabParent: 0
--- !u!1001 &751935956
Prefab:
  m_ObjectHideFlags: 0
  serializedVersion: 2
  m_Modification:
    m_TransformParent: {fileID: 0}
    m_Modifications:
    - target: {fileID: 4080602514752038, guid: b966056c72c0d064db879f9496d1d9ac, type: 2}
      propertyPath: m_LocalPosition.x
      value: 10
      objectReference: {fileID: 0}
    - target: {fileID: 4080602514752038, guid: b966056c72c0d064db879f9496d1d9ac, type: 2}
      propertyPath: m_LocalPosition.y
      value: 3
      objectReference: {fileID: 0}
    - target: {fileID: 4080602514752038, guid: b966056c72c0d064db879f9496d1d9ac, type: 2}
      propertyPath: m_LocalPosition.z
      value: 0
      objectReference: {fileID: 0}
    - target: {fileID: 4080602514752038, guid: b966056c72c0d064db879f9496d1d9ac, type: 2}
      propertyPath: m_LocalRotation.x
      value: -0
      objectReference: {fileID: 0}
    - target: {fileID: 4080602514752038, guid: b966056c72c0d064db879f9496d1d9ac, type: 2}
      propertyPath: m_LocalRotation.y
      value: -0
      objectReference: {fileID: 0}
    - target: {fileID: 4080602514752038, guid: b966056c72c0d064db879f9496d1d9ac, type: 2}
      propertyPath: m_LocalRotation.z
      value: -0
      objectReference: {fileID: 0}
    - target: {fileID: 4080602514752038, guid: b966056c72c0d064db879f9496d1d9ac, type: 2}
      propertyPath: m_LocalRotation.w
      value: 1
      objectReference: {fileID: 0}
    - target: {fileID: 4080602514752038, guid: b966056c72c0d064db879f9496d1d9ac, type: 2}
      propertyPath: m_RootOrder
      value: 7
      objectReference: {fileID: 0}
    - target: {fileID: 4080602514752038, guid: b966056c72c0d064db879f9496d1d9ac, type: 2}
      propertyPath: m_LocalScale.x
      value: 11
      objectReference: {fileID: 0}
    - target: {fileID: 1838934343268950, guid: b966056c72c0d064db879f9496d1d9ac, type: 2}
      propertyPath: m_Name
      value: Platform (1)
      objectReference: {fileID: 0}
    m_RemovedComponents: []
  m_ParentPrefab: {fileID: 100100000, guid: b966056c72c0d064db879f9496d1d9ac, type: 2}
  m_IsPrefabParent: 0
--- !u!1001 &1199109976
Prefab:
  m_ObjectHideFlags: 0
  serializedVersion: 2
  m_Modification:
    m_TransformParent: {fileID: 0}
    m_Modifications:
    - target: {fileID: 4080602514752038, guid: b966056c72c0d064db879f9496d1d9ac, type: 2}
      propertyPath: m_LocalPosition.x
      value: -10
      objectReference: {fileID: 0}
    - target: {fileID: 4080602514752038, guid: b966056c72c0d064db879f9496d1d9ac, type: 2}
      propertyPath: m_LocalPosition.y
      value: -3
      objectReference: {fileID: 0}
    - target: {fileID: 4080602514752038, guid: b966056c72c0d064db879f9496d1d9ac, type: 2}
      propertyPath: m_LocalPosition.z
      value: 0
      objectReference: {fileID: 0}
    - target: {fileID: 4080602514752038, guid: b966056c72c0d064db879f9496d1d9ac, type: 2}
      propertyPath: m_LocalRotation.x
      value: -0
      objectReference: {fileID: 0}
    - target: {fileID: 4080602514752038, guid: b966056c72c0d064db879f9496d1d9ac, type: 2}
      propertyPath: m_LocalRotation.y
      value: -0
      objectReference: {fileID: 0}
    - target: {fileID: 4080602514752038, guid: b966056c72c0d064db879f9496d1d9ac, type: 2}
      propertyPath: m_LocalRotation.z
      value: -0
      objectReference: {fileID: 0}
    - target: {fileID: 4080602514752038, guid: b966056c72c0d064db879f9496d1d9ac, type: 2}
      propertyPath: m_LocalRotation.w
      value: 1
      objectReference: {fileID: 0}
    - target: {fileID: 4080602514752038, guid: b966056c72c0d064db879f9496d1d9ac, type: 2}
      propertyPath: m_RootOrder
      value: 8
      objectReference: {fileID: 0}
    - target: {fileID: 4080602514752038, guid: b966056c72c0d064db879f9496d1d9ac, type: 2}
      propertyPath: m_LocalScale.x
      value: 11
      objectReference: {fileID: 0}
    - target: {fileID: 1838934343268950, guid: b966056c72c0d064db879f9496d1d9ac, type: 2}
      propertyPath: m_Name
      value: Platform (2)
      objectReference: {fileID: 0}
    m_RemovedComponents: []
  m_ParentPrefab: {fileID: 100100000, guid: b966056c72c0d064db879f9496d1d9ac, type: 2}
  m_IsPrefabParent: 0
--- !u!1001 &1865137466
Prefab:
  m_ObjectHideFlags: 0
  serializedVersion: 2
  m_Modification:
    m_TransformParent: {fileID: 0}
    m_Modifications:
    - target: {fileID: 4001446384841532, guid: 90ecb67272f072748a298c84f44cd3e0, type: 2}
      propertyPath: m_LocalPosition.x
      value: 0
      objectReference: {fileID: 0}
    - target: {fileID: 4001446384841532, guid: 90ecb67272f072748a298c84f44cd3e0, type: 2}
      propertyPath: m_LocalPosition.y
      value: 0
      objectReference: {fileID: 0}
    - target: {fileID: 4001446384841532, guid: 90ecb67272f072748a298c84f44cd3e0, type: 2}
      propertyPath: m_LocalPosition.z
      value: 0
      objectReference: {fileID: 0}
    - target: {fileID: 4001446384841532, guid: 90ecb67272f072748a298c84f44cd3e0, type: 2}
      propertyPath: m_LocalRotation.x
      value: 0
      objectReference: {fileID: 0}
    - target: {fileID: 4001446384841532, guid: 90ecb67272f072748a298c84f44cd3e0, type: 2}
      propertyPath: m_LocalRotation.y
      value: 0
      objectReference: {fileID: 0}
    - target: {fileID: 4001446384841532, guid: 90ecb67272f072748a298c84f44cd3e0, type: 2}
      propertyPath: m_LocalRotation.z
      value: 0
      objectReference: {fileID: 0}
    - target: {fileID: 4001446384841532, guid: 90ecb67272f072748a298c84f44cd3e0, type: 2}
      propertyPath: m_LocalRotation.w
      value: 1
      objectReference: {fileID: 0}
    - target: {fileID: 4001446384841532, guid: 90ecb67272f072748a298c84f44cd3e0, type: 2}
      propertyPath: m_RootOrder
      value: 4
      objectReference: {fileID: 0}
    m_RemovedComponents: []
  m_ParentPrefab: {fileID: 100100000, guid: 90ecb67272f072748a298c84f44cd3e0, type: 2}
  m_IsPrefabParent: 0
--- !u!1001 &1923041751
Prefab:
  m_ObjectHideFlags: 0
  serializedVersion: 2
  m_Modification:
    m_TransformParent: {fileID: 0}
    m_Modifications:
    - target: {fileID: 4902738912773018, guid: 066089f37a9bc27488231714fda3c14a, type: 2}
      propertyPath: m_LocalPosition.x
      value: 0
      objectReference: {fileID: 0}
    - target: {fileID: 4902738912773018, guid: 066089f37a9bc27488231714fda3c14a, type: 2}
      propertyPath: m_LocalPosition.y
      value: 0
      objectReference: {fileID: 0}
    - target: {fileID: 4902738912773018, guid: 066089f37a9bc27488231714fda3c14a, type: 2}
      propertyPath: m_LocalPosition.z
      value: 0
      objectReference: {fileID: 0}
    - target: {fileID: 4902738912773018, guid: 066089f37a9bc27488231714fda3c14a, type: 2}
      propertyPath: m_LocalRotation.x
      value: 0
      objectReference: {fileID: 0}
    - target: {fileID: 4902738912773018, guid: 066089f37a9bc27488231714fda3c14a, type: 2}
      propertyPath: m_LocalRotation.y
      value: 0
      objectReference: {fileID: 0}
    - target: {fileID: 4902738912773018, guid: 066089f37a9bc27488231714fda3c14a, type: 2}
      propertyPath: m_LocalRotation.z
      value: 0
      objectReference: {fileID: 0}
    - target: {fileID: 4902738912773018, guid: 066089f37a9bc27488231714fda3c14a, type: 2}
      propertyPath: m_LocalRotation.w
      value: 1
      objectReference: {fileID: 0}
    - target: {fileID: 4902738912773018, guid: 066089f37a9bc27488231714fda3c14a, type: 2}
      propertyPath: m_RootOrder
      value: 6
      objectReference: {fileID: 0}
    m_RemovedComponents: []
  m_ParentPrefab: {fileID: 100100000, guid: 066089f37a9bc27488231714fda3c14a, type: 2}
  m_IsPrefabParent: 0
